…
- A tidy dataframe with estimated proportions and CIs for each city was
  created and called `homicide_prop`.

``` r
homicide_prop
```

    ## # A tibble: 51 × 6
    ##   city_state      numb_unsolved total_homicide estimate conf.low conf.high
    ##   <chr>                   <int>          <int>    <dbl>    <dbl>     <dbl>
    ## 1 Albuquerque, NM           146            378    0.386    0.337     0.438
    ## 2 Atlanta, GA               373            973    0.383    0.353     0.415
    ## 3 Baltimore, MD            1825           2827    0.646    0.628     0.663
    ## 4 Baton Rouge, LA           196            424    0.462    0.414     0.511
    ## 5 Birmingham, AL            347            800    0.434    0.399     0.469
    ## # … with 46 more rows
    ## # ℹ Use `print(n = ...)` to see more rows
…
